roar-with-purrr
…
--

.pull-right[

```
## # A tibble: 640 x 3
##    sitename        year  count
##    <chr>           <chr> <dbl>
##  1 ADAK/LAKE POINT 1979    20 
##  2 ADAK/LAKE POINT 2002   363 
##  3 ADAK/LAKE POINT 2004   350 
##  4 ADAK/LAKE POINT 2005   311 
##  5 ADAK/LAKE POINT 2009   338.
##  6 ADAK/LAKE POINT 2010   318.
##  7 ADAK/LAKE POINT 2011   310.
##  8 ADAK/LAKE POINT 2014   250 
##  9 ADUGAK          1985   844 
## 10 ADUGAK          1990   262 
## # … with 630 more rows
```
…
--

.pull-right[

```
## # A tibble: 53 x 2
## # Groups:   sitename [53]
##    sitename             data             
##  * <chr>                <list>           
##  1 ADAK/LAKE POINT      <tibble [7 × 4]> 
##  2 ADUGAK               <tibble [8 × 4]> 
##  3 AGATTU/CAPE SABAK    <tibble [10 × 4]>
##  4 AGATTU/GILLON POINT  <tibble [8 × 4]> 
##  5 AKUN/BILLINGS HEAD   <tibble [7 × 4]> 
##  6 AKUTAN/CAPE MORGAN   <tibble [8 × 4]> 
##  7 AMCHITKA/COLUMN ROCK <tibble [5 × 4]> 
##  8 ATKINS               <tibble [9 × 4]> 
##  9 ATTU/CAPE WRANGELL   <tibble [8 × 4]> 
## 10 AYUGADAK             <tibble [7 × 4]> 
## # … with 43 more rows
```
…
```
## # A tibble: 53 x 5
## # Groups:   sitename [53]
##    sitename             data              model  coef        slope
##  * <chr>                <list>            <list> <list>      <dbl>
##  1 ADAK/LAKE POINT      <tibble [7 × 4]>  <lm>   <dbl [2]> -0.0232
##  2 ADUGAK               <tibble [8 × 4]>  <lm>   <dbl [2]>  0.0517
##  3 AGATTU/CAPE SABAK    <tibble [10 × 4]> <lm>   <dbl [2]> -0.112 
##  4 AGATTU/GILLON POINT  <tibble [8 × 4]>  <lm>   <dbl [2]> -0.0733
##  5 AKUN/BILLINGS HEAD   <tibble [7 × 4]>  <lm>   <dbl [2]>  0.0851
##  6 AKUTAN/CAPE MORGAN   <tibble [8 × 4]>  <lm>   <dbl [2]>  0.0399
##  7 AMCHITKA/COLUMN ROCK <tibble [5 × 4]>  <lm>   <dbl [2]> -0.107 
##  8 ATKINS               <tibble [9 × 4]>  <lm>   <dbl [2]>  0.0315
##  9 ATTU/CAPE WRANGELL   <tibble [8 × 4]>  <lm>   <dbl [2]> -0.0715
## 10 AYUGADAK             <tibble [7 × 4]>  <lm>   <dbl [2]> -0.0525
## # … with 43 more rows
```
…
```r
nboot <- 100
# first extract a table of fitted values and residuals using augment
ssl_boot <- ssl_models %>%
  mutate(tbl = map(model, broom::augment)) %>% 
  select(sitename, tbl) %>% 
  unnest(cols=c(tbl)) %>% 
  rename("resid" = ".resid") %>% 
  I()
ssl_boot
```

```
## # A tibble: 372 x 10
## # Groups:   sitename [53]
##    sitename log_count year2 .fitted .se.fit    resid  .hat .sigma .cooksd
##  * <chr>        <dbl> <dbl>   <dbl>   <dbl>    <dbl> <dbl>  <dbl>   <dbl>
##  1 ADAK/LA…      5.89     2    5.90  0.0522 -0.00375 0.452 0.0868 0.00176
##  2 ADAK/LA…      5.86     4    5.85  0.0409  0.00614 0.277 0.0868 0.00166
##  3 ADAK/LA…      5.74     5    5.83  0.0361 -0.0888  0.216 0.0709 0.231  
##  4 ADAK/LA…      5.82     9    5.74  0.0305  0.0886  0.155 0.0722 0.141  
##  5 ADAK/LA…      5.76    10    5.71  0.0333  0.0509  0.184 0.0821 0.0595 
##  6 ADAK/LA…      5.73    11    5.69  0.0374  0.0454  0.232 0.0829 0.0673 
##  7 ADAK/LA…      5.52    14    5.62  0.0540 -0.0985  0.483 0.0533 1.46   
##  8 ADUGAK        5.03     0    4.99  0.0522  0.0416  0.412 0.0857 0.155  
##  9 ADUGAK        5.08     2    5.09  0.0422 -0.0172  0.269 0.0886 0.0112 
## 10 ADUGAK        5.12     4    5.20  0.0340 -0.0778  0.175 0.0804 0.118  
## # … with 362 more rows, and 1 more variable: .std.resid <dbl>
```

---

We'll do resampling from the residuals for each year within each rookery.  
Rather than getting complicated with uber-nested lists, we'll use `sample_frac()` to do the resamples.  

```r
tosample <- ssl_boot %>% 
  select(sitename, resid) %>% 
  group_by(sitename)
tosample
```

```
## # A tibble: 372 x 2
## # Groups:   sitename [53]
##    sitename           resid
##  * <chr>              <dbl>
##  1 ADAK/LAKE POINT -0.00375
##  2 ADAK/LAKE POINT  0.00614
##  3 ADAK/LAKE POINT -0.0888 
##  4 ADAK/LAKE POINT  0.0886 
##  5 ADAK/LAKE POINT  0.0509 
##  6 ADAK/LAKE POINT  0.0454 
##  7 ADAK/LAKE POINT -0.0985 
##  8 ADUGAK           0.0416 
##  9 ADUGAK          -0.0172 
## 10 ADUGAK          -0.0778 
## # … with 362 more rows
```
…
```r
tosample <- ssl_boot %>% 
  select(sitename, resid) %>% 
  group_by(sitename)
#tosample
resamples <-
*  map_dfr(seq_len(nboot),~sample_frac(tosample, size = 1, replace = TRUE)) %>%
   ungroup() %>% 
   mutate(replicate = rep(1:nboot, each = nrow(tosample)))
resamples
```

```
## # A tibble: 37,200 x 3
##    sitename           resid replicate
##    <chr>              <dbl>     <int>
##  1 ADAK/LAKE POINT -0.0985          1
##  2 ADAK/LAKE POINT -0.00375         1
##  3 ADAK/LAKE POINT  0.00614         1
##  4 ADAK/LAKE POINT -0.0888          1
##  5 ADAK/LAKE POINT -0.0888          1
##  6 ADAK/LAKE POINT  0.0886          1
##  7 ADAK/LAKE POINT  0.00614         1
##  8 ADUGAK           0.168           1
##  9 ADUGAK          -0.0778          1
## 10 ADUGAK          -0.0778          1
## # … with 37,190 more rows
```
…
`resamples` contains our bootstraps.  
Let's append them to the data frame so we can compute the new data and re-fit the models for each case.  

```r
*ssl_bootmod <- map_dfr(seq_len(nboot), ~I(ssl_boot)) %>%
  select(-resid) %>% 
* bind_cols(resamples) %>%
  mutate(log_count = .fitted + resid) %>% 
  group_by(sitename, replicate) %>% 
  nest() 
ssl_bootmod
```

```
## # A tibble: 5,300 x 3
## # Groups:   sitename, replicate [5,300]
##    sitename             replicate data              
##    <chr>                    <int> <list>            
##  1 ADAK/LAKE POINT              1 <tibble [7 × 10]> 
##  2 ADUGAK                       1 <tibble [8 × 10]> 
##  3 AGATTU/CAPE SABAK            1 <tibble [10 × 10]>
##  4 AGATTU/GILLON POINT          1 <tibble [8 × 10]> 
##  5 AKUN/BILLINGS HEAD           1 <tibble [7 × 10]> 
##  6 AKUTAN/CAPE MORGAN           1 <tibble [8 × 10]> 
##  7 AMCHITKA/COLUMN ROCK         1 <tibble [5 × 10]> 
##  8 ATKINS                       1 <tibble [9 × 10]> 
##  9 ATTU/CAPE WRANGELL           1 <tibble [8 × 10]> 
## 10 AYUGADAK                     1 <tibble [7 × 10]> 
## # … with 5,290 more rows
```
…
```
## # A tibble: 5,300 x 9
## # Groups:   sitename [53]
##    sitename     replicate data     model coef     slope     med    lower   upper
##  * <chr>            <int> <list>   <lis> <list>   <dbl>   <dbl>    <dbl>   <dbl>
##  1 ADAK/LAKE P…         1 <tibble… <lm>  <dbl … -0.0178 -0.0223 -3.20e-2 -0.0126
##  2 ADUGAK               1 <tibble… <lm>  <dbl …  0.0455  0.0507  4.13e-2  0.0627
##  3 AGATTU/CAPE…         1 <tibble… <lm>  <dbl … -0.112  -0.112  -1.25e-1 -0.101 
##  4 AGATTU/GILL…         1 <tibble… <lm>  <dbl … -0.0691 -0.0730 -1.03e-1 -0.0426
##  5 AKUN/BILLIN…         1 <tibble… <lm>  <dbl …  0.0836  0.0819  5.04e-2  0.117 
##  6 AKUTAN/CAPE…         1 <tibble… <lm>  <dbl …  0.0352  0.0404  2.82e-2  0.0488
##  7 AMCHITKA/CO…         1 <tibble… <lm>  <dbl … -0.0613 -0.108  -1.49e-1 -0.0626
##  8 ATKINS               1 <tibble… <lm>  <dbl …  0.0470  0.0371 -5.64e-4  0.0743
##  9 ATTU/CAPE W…         1 <tibble… <lm>  <dbl … -0.0732 -0.0724 -1.00e-1 -0.0395
## 10 AYUGADAK             1 <tibble… <lm>  <dbl … -0.0657 -0.0538 -7.85e-2 -0.0253
## # … with 5,290 more rows
```
…
.pull-left[

```r
bsb <- read_csv("data/neus_bts.csv") %>% 
  filter(comname == "BLACK SEA BASS",
         biomass > 0,
         season == "SPRING")
bsb
```
]

.pull-right[

```
## # A tibble: 537 x 11
##    station stratum  year season   lat   lon depth surftemp comname abundance
##      <dbl>   <dbl> <dbl> <chr>  <dbl> <dbl> <dbl>    <dbl> <chr>       <dbl>
##  1       1    1020  2001 SPRING  39.7 -72.4    89     6.42 BLACK …         9
##  2       1    1030  2006 SPRING  39.2 -72.7   115     7.06 BLACK …         1
##  3       1    1700  2003 SPRING  38.5 -73.9    59     8.83 BLACK …       209
##  4       1    1750  2004 SPRING  39.0 -72.9    99     4.18 BLACK …      7614
##  5       2    1700  2003 SPRING  38.4 -74.0    63     8.96 BLACK …         1
##  6       3    1060  2008 SPRING  40.3 -71.6    83     5.21 BLACK …         1
##  7       3    1700  2003 SPRING  38.4 -74.1    59     8.84 BLACK …         4
##  8       3    1750  2004 SPRING  38.5 -73.3   124     5.81 BLACK …       348
##  9       4    1700  2011 SPRING  38.2 -74.0    79     7.16 BLACK …        15
## 10       4    1700  2013 SPRING  38.3 -73.8   109     7.87 BLACK …      2640
## # … with 527 more rows, and 1 more variable: biomass <dbl>
```
…
```
## [1] 0.24
```

```r
pop_proj
```

```
## # A tibble: 100 x 4
##    replicate value       final_n drops_below_500
##        <int> <list>        <dbl> <lgl>          
##  1         1 <dbl [101]>    196. TRUE           
##  2         2 <dbl [101]>    616. FALSE          
##  3         3 <dbl [101]>    206. TRUE           
##  4         4 <dbl [101]>    531. TRUE           
##  5         5 <dbl [101]>   3834. FALSE          
##  6         6 <dbl [101]>   1081. FALSE          
##  7         7 <dbl [101]>   1843. FALSE          
##  8         8 <dbl [101]>   1065. FALSE          
##  9         9 <dbl [101]>   1736. FALSE          
## 10        10 <dbl [101]>   2343. FALSE          
## # … with 90 more rows
```
